wave.vcd
$date
	Tue Jun 24 20:29:44 2025
$end
$version
	Icarus Verilog
$end
$timescale
	1ps
$end
$scope module patternMealy_tb $end
$var wire 1 ! y $end
$var reg 1 " a $end
$var reg 1 # clk $end
$var reg 1 $ reset $end
$scope module dut $end
$var wire 1 " a $end
$var wire 1 # clk $end
$var wire 1 $ reset $end
$var wire 1 ! y $end
$var reg 1 % nextstate $end
$var reg 1 & state $end
$upscope $end
$upscope $end
$enddefinitions $end
$comment Show the parameter values. $end
$dumpall
$end
#0
$dumpvars
0&
1%
1$
0#
0"
0!
$end
#5000
1#
#10000
0#
#12000
0$
#15000
1&
1#
#20000
0#
#25000
1!
0%
1"
1#
#30000
0#
#35000
0!
0&
1#
#40000
0#
#45000
1%
0"
1#
#50000
0#
#55000
1&
1#
#60000
0#
#65000
1!
0%
1"
1#
#70000
0#
#75000
0!
0&
1#
#80000
0#
#85000
1%
0"
1#
#90000
0#
#95000
1&
1#
#100000
0#
#105000
1!
0%
1"
1#
#110000
0#
#115000
0!
0&
1#
#120000
0#
#125000
1%
0"
1#
#130000
0#
#135000
1&
1#
